{
    "chmod": "0755",
    "directories": ["src"],
    "finder": [
        {
            "name": "*.php",
            "exclude": [
                "phpunit",
                "phpunit-test-case",
                "Tester",
                "Tests",
                "tests",
                "yaml"
            ],
            "in": "src/vendor"
        }
    ],
    "main": "bin/kftpd",
    "output": "kftpd.phar",
    "stub": true
}